{
    "extensionDescription": {
        "message": "Durchführen von Studien für das Online-Spiel Hattrick",
        "description": "Description of the extension."
      },
    
    "colon": {
        "message": ":",
        "description": "Colon"
      },

    "menuItem": {
      "message": "Studien",
      "description": "Name shown as menu item."
    },

    "mainTitle": {
        "message": "HT Studies",
        "description": "Appears in main header."
    },

    "mainSubtitle": {
        "message": "Beteilige dich an statistischen Studien bei Hattrick",
        "description": ""
    },

    "description": {
        "message": "HT Studies ist eine Browsererweiterung, die es dir möglich macht, an statistischen Studien bei Hattrick teilzunehmen.",
        "description": ""
    },

    "onGoingStudiesTitle": {
        "message": "Laufende Studien",
        "description": ""
    },

    "notifySubscriptionOn": {
        "message": "Teilnahme aktiviert!",
        "description": ""
    },

    "notifySubscriptionOff": {
        "message": "Teilnahme abgebrochen!",
        "description": ""
    },

    "dataLabel": {
        "message": "Gesammelte Daten",
        "description": ""
    },

    "downloadData": {
        "message": "Daten herunterladen",
        "description": "Link to download study data"
    },

    "sidebarTitle": {
        "message": "CHPP Status",
        "description": ""
    },

    "sidebarNoUser": {
        "message": "Kein Benutzer verbunden",
        "description": ""
    },

    "sidebarLoginButton": {
        "message": "CHPP Login",
        "description": ""
    },

    "sidebarUserLabel": {
        "message": "Benutzer:",
        "description": ""
    },

    "sidebarTeamLabel": {
        "message": "Mannschaft:",
        "description": ""
    }

  }